<?xml version="1.0" encoding="UTF-8" standalone="no"?>
<!-- Created with Inkscape (http://www.inkscape.org/) -->

<svg
   xmlns:dc="http://purl.org/dc/elements/1.1/"
   xmlns:cc="http://creativecommons.org/ns#"
   xmlns:rdf="http://www.w3.org/1999/02/22-rdf-syntax-ns#"
   xmlns:svg="http://www.w3.org/2000/svg"
   xmlns="http://www.w3.org/2000/svg"
   xmlns:sodipodi="http://sodipodi.sourceforge.net/DTD/sodipodi-0.dtd"
   xmlns:inkscape="http://www.inkscape.org/namespaces/inkscape"
   width="2010.7522"
   height="1172.3956"
   viewBox="0 0 532.01151 310.19636"
   version="1.1"
   id="svg8"
   inkscape:version="0.91 r13725"
   sodipodi:docname="home_claire-1.svg">
  <defs
     id="defs2" />
  <sodipodi:namedview
     id="base"
     pagecolor="#ffffff"
     bordercolor="#666666"
     borderopacity="1.0"
     inkscape:pageopacity="0.0"
     inkscape:pageshadow="2"
     inkscape:zoom="0.30127268"
     inkscape:cx="1582.262"
     inkscape:cy="691.64591"
     inkscape:document-units="mm"
     inkscape:current-layer="layer2"
     showgrid="false"
     units="px"
     inkscape:window-width="1364"
     inkscape:window-height="715"
     inkscape:window-x="0"
     inkscape:window-y="24"
     inkscape:window-maximized="0"
     showguides="true"
     inkscape:guide-bbox="true"
     fit-margin-top="0"
     fit-margin-left="0"
     fit-margin-right="0"
     fit-margin-bottom="0">
    <sodipodi:guide
       position="4.4268028,211.97581"
       orientation="1,0"
       id="guide4444"
       inkscape:locked="false" />
  </sodipodi:namedview>
  <metadata
     id="metadata5">
    <rdf:RDF>
      <cc:Work
         rdf:about="">
        <dc:format>image/svg+xml</dc:format>
        <dc:type
           rdf:resource="http://purl.org/dc/dcmitype/StillImage" />
        <dc:title></dc:title>
      </cc:Work>
    </rdf:RDF>
  </metadata>
  <g
     inkscape:groupmode="layer"
     id="layer3"
     inkscape:label="Calque 2"
     transform="translate(87.563143,60.36431)" />
  <g
     inkscape:label="Calque 1"
     inkscape:groupmode="layer"
     id="layer1"
     transform="translate(87.563143,-46.13565)"
     style="display:inline">
    <rect
       style="opacity:1;fill:#f9f9f9;fill-opacity:0.6;stroke:#000000;stroke-width:1.01634037;stroke-linecap:round;stroke-linejoin:round;stroke-miterlimit:4;stroke-dasharray:none;stroke-dashoffset:0;stroke-opacity:0.23188405;paint-order:markers fill stroke"
       id="rect10"
       width="30.460407"
       height="191.7318"
       x="308.20624"
       y="106.52711" />
  </g>
  <g
     inkscape:groupmode="layer"
     id="layer2"
     inkscape:label="commentaire"
     transform="translate(87.563143,60.36431)">
    <rect
       style="opacity:1;fill:none;fill-opacity:1;stroke:#000000;stroke-width:0.26988745;stroke-linecap:round;stroke-linejoin:round;stroke-miterlimit:4;stroke-dasharray:0.26988747, 1.07954991;stroke-dashoffset:0;stroke-opacity:0.5;paint-order:stroke markers fill"
       id="rect8012"
       width="531.74164"
       height="309.92648"
       x="-87.428215"
       y="-60.229366" />
    <text
       xml:space="preserve"
       style="font-style:normal;font-weight:normal;line-height:0%;font-family:sans-serif;letter-spacing:0px;word-spacing:0px;fill:#000000;fill-opacity:1;stroke:#0000ff;stroke-width:0.26458332px;stroke-linecap:butt;stroke-linejoin:miter;stroke-opacity:1"
       x="-79.029793"
       y="240.84445"
       id="text6425-1-7"
       sodipodi:linespacing="0%"><tspan
         sodipodi:role="line"
         x="-79.029793"
         y="240.84445"
         style="font-style:normal;font-variant:normal;font-weight:normal;font-stretch:normal;font-size:3.52777767px;line-height:2.82222199;font-family:monospace;-inkscape-font-specification:monospace;fill:#000000;stroke:none;stroke-width:0.26458332px"
         id="tspan6469-40">HOME DU SITE 1</tspan></text>
    <g
       id="g12491"
       transform="matrix(1.2666567,0,0,1.2666567,1.5450609,-3.0207699)">
      <g
         id="g4776"
         transform="matrix(1,0,0,0.59294637,0,4.6112296)"
         style="stroke-width:1.2986505">
        <rect
           style="opacity:1;fill:none;fill-opacity:0.6;stroke:#000000;stroke-width:0.48680165;stroke-linecap:round;stroke-linejoin:round;stroke-miterlimit:4;stroke-dasharray:none;stroke-dashoffset:0;stroke-opacity:1;paint-order:stroke markers fill"
           id="rect4776-9-9"
           width="71.77961"
           height="97.557846"
           x="8.4923754"
           y="11.32831" />
        <path
           style="fill:none;fill-rule:evenodd;stroke:#000000;stroke-width:0.48680165;stroke-linecap:butt;stroke-linejoin:miter;stroke-miterlimit:4;stroke-dasharray:none;stroke-opacity:1"
           d="M 8.4923739,11.328335 80.271959,108.88614"
           id="path4886-8-0"
           inkscape:connector-curvature="0" />
        <path
           style="fill:none;fill-rule:evenodd;stroke:#000000;stroke-width:0.48680165;stroke-linecap:butt;stroke-linejoin:miter;stroke-miterlimit:4;stroke-dasharray:none;stroke-opacity:1"
           d="M 8.4923739,108.88614 80.271959,11.328335"
           id="path4888-7-2"
           inkscape:connector-curvature="0" />
        <path
           style="fill:none;fill-rule:evenodd;stroke:#000000;stroke-width:0.48680165;stroke-linecap:butt;stroke-linejoin:miter;stroke-miterlimit:4;stroke-dasharray:none;stroke-opacity:1"
           d="M 8.4923739,108.88614 80.271959,11.328335"
           id="path4888-1-2-8"
           inkscape:connector-curvature="0" />
      </g>
      <g
         transform="matrix(0.94126373,0,0,1,1.3022201,64.893068)"
         id="g12431">
        <rect
           style="display:inline;opacity:1;fill:#000000;fill-opacity:0.4;stroke:none;stroke-width:0.26458332;stroke-linecap:round;stroke-linejoin:round;stroke-miterlimit:4;stroke-dasharray:none;stroke-dashoffset:0;stroke-opacity:1;paint-order:stroke markers fill"
           id="rect5983-5"
           width="74.759506"
           height="2.4169366"
           x="7.2187309"
           y="8.9477301" />
        <rect
           style="display:inline;opacity:1;fill:#000000;fill-opacity:0.4;stroke:none;stroke-width:0.26458332;stroke-linecap:round;stroke-linejoin:round;stroke-miterlimit:4;stroke-dasharray:none;stroke-dashoffset:0;stroke-opacity:1;paint-order:stroke markers fill"
           id="rect5983-2-9"
           width="45.339176"
           height="2.4169366"
           x="7.2187309"
           y="13.875129" />
      </g>
      <rect
         y="11.32831"
         x="88.410309"
         height="97.557846"
         width="71.77961"
         id="rect4776-9-9-3"
         style="opacity:1;fill:none;fill-opacity:0.6;stroke:#000000;stroke-width:0.37485194;stroke-linecap:round;stroke-linejoin:round;stroke-miterlimit:4;stroke-dasharray:none;stroke-dashoffset:0;stroke-opacity:1;paint-order:stroke markers fill" />
      <path
         inkscape:connector-curvature="0"
         id="path4886-8-0-6"
         d="M 88.410304,11.328335 160.18989,108.88614"
         style="fill:none;fill-rule:evenodd;stroke:#000000;stroke-width:0.37485194;stroke-linecap:butt;stroke-linejoin:miter;stroke-miterlimit:4;stroke-dasharray:none;stroke-opacity:1" />
      <path
         inkscape:connector-curvature="0"
         id="path4888-7-2-8"
         d="M 88.410304,108.88614 160.18989,11.328335"
         style="fill:none;fill-rule:evenodd;stroke:#000000;stroke-width:0.37485194;stroke-linecap:butt;stroke-linejoin:miter;stroke-miterlimit:4;stroke-dasharray:none;stroke-opacity:1" />
      <path
         inkscape:connector-curvature="0"
         id="path4888-1-2-8-0"
         d="M 88.410304,108.88614 160.18989,11.328335"
         style="fill:none;fill-rule:evenodd;stroke:#000000;stroke-width:0.37485194;stroke-linecap:butt;stroke-linejoin:miter;stroke-miterlimit:4;stroke-dasharray:none;stroke-opacity:1" />
      <g
         transform="matrix(0.94126373,0,0,1,81.220136,103.71984)"
         id="g12431-2">
        <rect
           style="display:inline;opacity:1;fill:#000000;fill-opacity:0.4;stroke:none;stroke-width:0.26458332;stroke-linecap:round;stroke-linejoin:round;stroke-miterlimit:4;stroke-dasharray:none;stroke-dashoffset:0;stroke-opacity:1;paint-order:stroke markers fill"
           id="rect5983-5-1"
           width="74.759506"
           height="2.4169366"
           x="7.2187309"
           y="8.9477301" />
        <rect
           style="display:inline;opacity:1;fill:#000000;fill-opacity:0.4;stroke:none;stroke-width:0.26458332;stroke-linecap:round;stroke-linejoin:round;stroke-miterlimit:4;stroke-dasharray:none;stroke-dashoffset:0;stroke-opacity:1;paint-order:stroke markers fill"
           id="rect5983-2-9-0"
           width="45.339176"
           height="2.4169366"
           x="7.2187309"
           y="13.875129" />
      </g>
    </g>
    <g
       transform="matrix(4.2471199,0,0,13.098883,-591.00705,-1537.6397)"
       id="g5052-6-52-1"
       style="display:inline;stroke-width:0.06365819;stroke-miterlimit:4;stroke-dasharray:none">
      <rect
         y="125.74013"
         x="142.05133"
         height="9.4338045"
         width="21.407478"
         id="rect4776-9-9-1"
         style="opacity:1;fill:none;fill-opacity:0.6;stroke:#000000;stroke-width:0.06365819;stroke-linecap:round;stroke-linejoin:round;stroke-miterlimit:4;stroke-dasharray:none;stroke-dashoffset:0;stroke-opacity:1;paint-order:stroke markers fill" />
      <path
         inkscape:connector-curvature="0"
         id="path4886-8-0-0"
         d="m 142.05133,125.74013 21.40747,9.4338"
         style="fill:none;fill-rule:evenodd;stroke:#000000;stroke-width:0.06365819;stroke-linecap:butt;stroke-linejoin:miter;stroke-miterlimit:4;stroke-dasharray:none;stroke-opacity:1" />
      <path
         inkscape:connector-curvature="0"
         id="path4888-7-2-85"
         d="m 142.05133,135.17393 21.40747,-9.4338"
         style="fill:none;fill-rule:evenodd;stroke:#000000;stroke-width:0.06365819;stroke-linecap:butt;stroke-linejoin:miter;stroke-miterlimit:4;stroke-dasharray:none;stroke-opacity:1" />
      <path
         inkscape:connector-curvature="0"
         id="path4888-1-2-8-06"
         d="m 142.05133,135.17393 21.40747,-9.4338"
         style="fill:none;fill-rule:evenodd;stroke:#000000;stroke-width:0.06365819;stroke-linecap:butt;stroke-linejoin:miter;stroke-miterlimit:4;stroke-dasharray:none;stroke-opacity:1" />
    </g>
    <g
       id="g12431-4"
       transform="matrix(1.192258,0,0,1.2666567,3.1945266,226.44395)">
      <rect
         y="8.9477301"
         x="7.2187309"
         height="2.4169366"
         width="74.759506"
         id="rect5983-5-6"
         style="display:inline;opacity:1;fill:#000000;fill-opacity:0.4;stroke:none;stroke-width:0.26458332;stroke-linecap:round;stroke-linejoin:round;stroke-miterlimit:4;stroke-dasharray:none;stroke-dashoffset:0;stroke-opacity:1;paint-order:stroke markers fill" />
      <rect
         y="13.875129"
         x="7.2187309"
         height="2.4169366"
         width="45.339176"
         id="rect5983-2-9-2"
         style="display:inline;opacity:1;fill:#000000;fill-opacity:0.4;stroke:none;stroke-width:0.26458332;stroke-linecap:round;stroke-linejoin:round;stroke-miterlimit:4;stroke-dasharray:none;stroke-dashoffset:0;stroke-opacity:1;paint-order:stroke markers fill" />
    </g>
    <g
       transform="matrix(4.2471199,0,0,13.098883,-489.77847,-1488.9967)"
       id="g5052-6-52-9-5"
       style="display:inline;stroke-width:0.06365819;stroke-miterlimit:4;stroke-dasharray:none">
      <rect
         y="125.74013"
         x="142.05133"
         height="9.4338045"
         width="21.407478"
         id="rect4776-9-9-3-8"
         style="opacity:1;fill:none;fill-opacity:0.6;stroke:#000000;stroke-width:0.06365819;stroke-linecap:round;stroke-linejoin:round;stroke-miterlimit:4;stroke-dasharray:none;stroke-dashoffset:0;stroke-opacity:1;paint-order:stroke markers fill" />
      <path
         inkscape:connector-curvature="0"
         id="path4886-8-0-6-6"
         d="m 142.05133,125.74013 21.40747,9.4338"
         style="fill:none;fill-rule:evenodd;stroke:#000000;stroke-width:0.06365819;stroke-linecap:butt;stroke-linejoin:miter;stroke-miterlimit:4;stroke-dasharray:none;stroke-opacity:1" />
      <path
         inkscape:connector-curvature="0"
         id="path4888-7-2-8-2"
         d="m 142.05133,135.17393 21.40747,-9.4338"
         style="fill:none;fill-rule:evenodd;stroke:#000000;stroke-width:0.06365819;stroke-linecap:butt;stroke-linejoin:miter;stroke-miterlimit:4;stroke-dasharray:none;stroke-opacity:1" />
      <path
         inkscape:connector-curvature="0"
         id="path4888-1-2-8-0-8"
         d="m 142.05133,135.17393 21.40747,-9.4338"
         style="fill:none;fill-rule:evenodd;stroke:#000000;stroke-width:0.06365819;stroke-linecap:butt;stroke-linejoin:miter;stroke-miterlimit:4;stroke-dasharray:none;stroke-opacity:1" />
    </g>
    <g
       id="g12431-2-4"
       transform="matrix(1.192258,0,0,1.2666567,104.42309,275.08692)">
      <rect
         y="8.9477301"
         x="7.2187309"
         height="2.4169366"
         width="74.759506"
         id="rect5983-5-1-7"
         style="display:inline;opacity:1;fill:#000000;fill-opacity:0.4;stroke:none;stroke-width:0.26458332;stroke-linecap:round;stroke-linejoin:round;stroke-miterlimit:4;stroke-dasharray:none;stroke-dashoffset:0;stroke-opacity:1;paint-order:stroke markers fill" />
      <rect
         y="13.875129"
         x="7.2187309"
         height="2.4169366"
         width="45.339176"
         id="rect5983-2-9-0-2"
         style="display:inline;opacity:1;fill:#000000;fill-opacity:0.4;stroke:none;stroke-width:0.26458332;stroke-linecap:round;stroke-linejoin:round;stroke-miterlimit:4;stroke-dasharray:none;stroke-dashoffset:0;stroke-opacity:1;paint-order:stroke markers fill" />
    </g>
    <rect
       style="opacity:1;fill:#000000;fill-opacity:0.4;stroke:none;stroke-width:0.26458332;stroke-linecap:round;stroke-linejoin:round;stroke-miterlimit:4;stroke-dasharray:none;stroke-dashoffset:0;stroke-opacity:1;paint-order:stroke markers fill"
       id="rect5983-2-1-5-9-6-0-2-4"
       width="18.773056"
       height="2.4169366"
       x="311.8327"
       y="21.454662" />
    <rect
       style="color:#000000;clip-rule:nonzero;display:inline;overflow:visible;visibility:visible;opacity:1;isolation:auto;mix-blend-mode:normal;color-interpolation:sRGB;color-interpolation-filters:linearRGB;solid-color:#000000;solid-opacity:1;fill:#000000;fill-opacity:0.4;fill-rule:nonzero;stroke:#000000;stroke-width:0.26458332;stroke-linecap:round;stroke-linejoin:round;stroke-miterlimit:4;stroke-dasharray:none;stroke-dashoffset:0;stroke-opacity:0.97101452;paint-order:stroke markers fill;color-rendering:auto;image-rendering:auto;shape-rendering:auto;text-rendering:auto;enable-background:accumulate"
       id="rect5983-2-7-2"
       width="13.064633"
       height="2.4169366"
       x="311.965"
       y="16.357378" />
    <rect
       style="opacity:1;fill:#000000;fill-opacity:0.4;stroke:#000000;stroke-width:0.26458332;stroke-linecap:round;stroke-linejoin:round;stroke-miterlimit:4;stroke-dasharray:none;stroke-dashoffset:0;stroke-opacity:0.97101452;paint-order:stroke markers fill"
       id="rect5983-2-1-5-9-6-69-5"
       width="18.773056"
       height="2.4169366"
       x="311.965"
       y="21.454662" />
    <rect
       style="display:inline;opacity:1;fill:#000000;fill-opacity:0.4;stroke:none;stroke-width:0.26458332;stroke-linecap:round;stroke-linejoin:round;stroke-miterlimit:4;stroke-dasharray:none;stroke-dashoffset:0;stroke-opacity:1;paint-order:stroke markers fill"
       id="rect5983-5-9-4"
       width="24.04237"
       height="2.4169366"
       x="311.8327"
       y="11.912109" />
    <rect
       style="display:inline;opacity:1;fill:#000000;fill-opacity:0.4;stroke:#000000;stroke-width:0.26458332;stroke-linecap:round;stroke-linejoin:round;stroke-miterlimit:4;stroke-dasharray:none;stroke-dashoffset:0;stroke-opacity:0.97101452;paint-order:stroke markers fill"
       id="rect5983-5-9-4-7"
       width="24.04237"
       height="2.4169366"
       x="311.965"
       y="11.912109" />
    <rect
       style="color:#000000;clip-rule:nonzero;display:inline;overflow:visible;visibility:visible;opacity:1;isolation:auto;mix-blend-mode:normal;color-interpolation:sRGB;color-interpolation-filters:linearRGB;solid-color:#000000;solid-opacity:1;fill:#000000;fill-opacity:0.4;fill-rule:nonzero;stroke:#000000;stroke-width:0.26458332;stroke-linecap:round;stroke-linejoin:round;stroke-miterlimit:4;stroke-dasharray:none;stroke-dashoffset:0;stroke-opacity:0.97101452;paint-order:stroke markers fill;color-rendering:auto;image-rendering:auto;shape-rendering:auto;text-rendering:auto;enable-background:accumulate"
       id="rect5983-2-7-0"
       width="13.064633"
       height="2.4169366"
       x="311.965"
       y="26.030247" />
    <rect
       style="opacity:1;fill:#000000;fill-opacity:0.4;stroke:#000000;stroke-width:0.26458332;stroke-linecap:round;stroke-linejoin:round;stroke-miterlimit:4;stroke-dasharray:none;stroke-dashoffset:0;stroke-opacity:0.97101452;paint-order:stroke markers fill"
       id="rect5983-2-1-5-9-6-69-6"
       width="18.773056"
       height="2.4169366"
       x="311.965"
       y="30.598381" />
    <rect
       style="color:#000000;clip-rule:nonzero;display:inline;overflow:visible;visibility:visible;opacity:1;isolation:auto;mix-blend-mode:normal;color-interpolation:sRGB;color-interpolation-filters:linearRGB;solid-color:#000000;solid-opacity:1;fill:#000000;fill-opacity:0.4;fill-rule:nonzero;stroke:#000000;stroke-width:0.26458332;stroke-linecap:round;stroke-linejoin:round;stroke-miterlimit:4;stroke-dasharray:none;stroke-dashoffset:0;stroke-opacity:0.97101452;paint-order:stroke markers fill;color-rendering:auto;image-rendering:auto;shape-rendering:auto;text-rendering:auto;enable-background:accumulate"
       id="rect5983-2-7-2-5"
       width="13.064633"
       height="2.4169366"
       x="311.965"
       y="26.030247" />
    <rect
       style="opacity:1;fill:#000000;fill-opacity:0.4;stroke:#000000;stroke-width:0.26458332;stroke-linecap:round;stroke-linejoin:round;stroke-miterlimit:4;stroke-dasharray:none;stroke-dashoffset:0;stroke-opacity:0.97101452;paint-order:stroke markers fill"
       id="rect5983-2-1-5-9-6-69-5-0"
       width="18.773056"
       height="2.4169366"
       x="311.965"
       y="30.598381" />
    <rect
       style="color:#000000;clip-rule:nonzero;display:inline;overflow:visible;visibility:visible;opacity:1;isolation:auto;mix-blend-mode:normal;color-interpolation:sRGB;color-interpolation-filters:linearRGB;solid-color:#000000;solid-opacity:1;fill:#000000;fill-opacity:0.4;fill-rule:nonzero;stroke:none;stroke-width:0.26458332;stroke-linecap:round;stroke-linejoin:round;stroke-miterlimit:4;stroke-dasharray:none;stroke-dashoffset:0;stroke-opacity:1;paint-order:stroke markers fill;color-rendering:auto;image-rendering:auto;shape-rendering:auto;text-rendering:auto;enable-background:accumulate"
       id="rect5983-2-7-7-5-0"
       width="13.393961"
       height="2.4169366"
       x="311.8327"
       y="16.357378" />
    <g
       transform="matrix(4.24712,0,0,9.8827284,-393.50895,-1231.0163)"
       id="g5052-6-52-9-5-3"
       style="display:inline;stroke-width:0.07328802;stroke-miterlimit:4;stroke-dasharray:none">
      <rect
         y="125.74013"
         x="142.05133"
         height="9.4338045"
         width="21.407478"
         id="rect4776-9-9-3-8-6"
         style="opacity:1;fill:none;fill-opacity:0.6;stroke:#000000;stroke-width:0.07328802;stroke-linecap:round;stroke-linejoin:round;stroke-miterlimit:4;stroke-dasharray:none;stroke-dashoffset:0;stroke-opacity:1;paint-order:stroke markers fill" />
      <path
         inkscape:connector-curvature="0"
         id="path4886-8-0-6-6-7"
         d="m 142.05133,125.74013 21.40747,9.4338"
         style="fill:none;fill-rule:evenodd;stroke:#000000;stroke-width:0.07328802;stroke-linecap:butt;stroke-linejoin:miter;stroke-miterlimit:4;stroke-dasharray:none;stroke-opacity:1" />
      <path
         inkscape:connector-curvature="0"
         id="path4888-7-2-8-2-5"
         d="m 142.05133,135.17393 21.40747,-9.4338"
         style="fill:none;fill-rule:evenodd;stroke:#000000;stroke-width:0.07328802;stroke-linecap:butt;stroke-linejoin:miter;stroke-miterlimit:4;stroke-dasharray:none;stroke-opacity:1" />
      <path
         inkscape:connector-curvature="0"
         id="path4888-1-2-8-0-8-3"
         d="m 142.05133,135.17393 21.40747,-9.4338"
         style="fill:none;fill-rule:evenodd;stroke:#000000;stroke-width:0.07328802;stroke-linecap:butt;stroke-linejoin:miter;stroke-miterlimit:4;stroke-dasharray:none;stroke-opacity:1" />
    </g>
    <g
       id="g12431-2-4-5"
       transform="matrix(1.192258,0,0,1.2666567,200.69261,99.078256)">
      <rect
         y="8.9477301"
         x="7.2187309"
         height="2.4169366"
         width="74.759506"
         id="rect5983-5-1-7-6"
         style="display:inline;opacity:1;fill:#000000;fill-opacity:0.4;stroke:none;stroke-width:0.26458332;stroke-linecap:round;stroke-linejoin:round;stroke-miterlimit:4;stroke-dasharray:none;stroke-dashoffset:0;stroke-opacity:1;paint-order:stroke markers fill" />
      <rect
         y="13.875129"
         x="7.2187309"
         height="2.4169366"
         width="45.339176"
         id="rect5983-2-9-0-2-2"
         style="display:inline;opacity:1;fill:#000000;fill-opacity:0.4;stroke:none;stroke-width:0.26458332;stroke-linecap:round;stroke-linejoin:round;stroke-miterlimit:4;stroke-dasharray:none;stroke-dashoffset:0;stroke-opacity:1;paint-order:stroke markers fill" />
    </g>
    <g
       transform="matrix(4.24712,0,0,5.0256785,-392.53666,-501.30358)"
       id="g5052-6-52-9-5-9"
       style="display:inline;stroke-width:0.10277183;stroke-miterlimit:4;stroke-dasharray:none">
      <rect
         y="125.74013"
         x="142.05133"
         height="9.4338045"
         width="21.407478"
         id="rect4776-9-9-3-8-1"
         style="opacity:1;fill:none;fill-opacity:0.6;stroke:#000000;stroke-width:0.10277183;stroke-linecap:round;stroke-linejoin:round;stroke-miterlimit:4;stroke-dasharray:none;stroke-dashoffset:0;stroke-opacity:1;paint-order:stroke markers fill" />
      <path
         inkscape:connector-curvature="0"
         id="path4886-8-0-6-6-2"
         d="m 142.05133,125.74013 21.40747,9.4338"
         style="fill:none;fill-rule:evenodd;stroke:#000000;stroke-width:0.10277183;stroke-linecap:butt;stroke-linejoin:miter;stroke-miterlimit:4;stroke-dasharray:none;stroke-opacity:1" />
      <path
         inkscape:connector-curvature="0"
         id="path4888-7-2-8-2-7"
         d="m 142.05133,135.17393 21.40747,-9.4338"
         style="fill:none;fill-rule:evenodd;stroke:#000000;stroke-width:0.10277183;stroke-linecap:butt;stroke-linejoin:miter;stroke-miterlimit:4;stroke-dasharray:none;stroke-opacity:1" />
      <path
         inkscape:connector-curvature="0"
         id="path4888-1-2-8-0-8-0"
         d="m 142.05133,135.17393 21.40747,-9.4338"
         style="fill:none;fill-rule:evenodd;stroke:#000000;stroke-width:0.10277183;stroke-linecap:butt;stroke-linejoin:miter;stroke-miterlimit:4;stroke-dasharray:none;stroke-opacity:1" />
    </g>
    <g
       id="g12431-2-4-9"
       transform="matrix(1.192258,0,0,1.2666567,201.6649,173.24581)">
      <rect
         y="8.9477301"
         x="7.2187309"
         height="2.4169366"
         width="74.759506"
         id="rect5983-5-1-7-3"
         style="display:inline;opacity:1;fill:#000000;fill-opacity:0.4;stroke:none;stroke-width:0.26458332;stroke-linecap:round;stroke-linejoin:round;stroke-miterlimit:4;stroke-dasharray:none;stroke-dashoffset:0;stroke-opacity:1;paint-order:stroke markers fill" />
      <rect
         y="13.875129"
         x="7.2187309"
         height="2.4169366"
         width="45.339176"
         id="rect5983-2-9-0-2-6"
         style="display:inline;opacity:1;fill:#000000;fill-opacity:0.4;stroke:none;stroke-width:0.26458332;stroke-linecap:round;stroke-linejoin:round;stroke-miterlimit:4;stroke-dasharray:none;stroke-dashoffset:0;stroke-opacity:1;paint-order:stroke markers fill" />
    </g>
    <rect
       style="opacity:1;fill:#ffffff;fill-opacity:1;stroke:none;stroke-width:0.99999994;stroke-linecap:round;stroke-linejoin:miter;stroke-miterlimit:4;stroke-dasharray:none;stroke-dashoffset:0;stroke-opacity:1;paint-order:stroke markers fill"
       id="rect4866"
       width="359.78046"
       height="122.93995"
       x="-11.798895"
       y="192.2881" />
    <text
       xml:space="preserve"
       style="font-style:normal;font-weight:normal;font-size:10.58333302px;line-height:108.99999142%;font-family:sans-serif;letter-spacing:0px;word-spacing:0px;fill:#000000;fill-opacity:1;stroke:none;stroke-width:0.26458332px;stroke-linecap:butt;stroke-linejoin:miter;stroke-opacity:1"
       x="-78.342102"
       y="-50.824604"
       id="text6425-4"
       sodipodi:linespacing="108.99999%"><tspan
         sodipodi:role="line"
         x="-78.342102"
         y="-50.824604"
         style="font-style:normal;font-variant:normal;font-weight:normal;font-stretch:normal;font-size:3.52777767px;line-height:108.99999142%;font-family:monospace;-inkscape-font-specification:monospace;fill:#ff6600;stroke-width:0.26458332px"
         id="tspan5641">L'ensemble du site est constitué de deux parties, </tspan><tspan
         sodipodi:role="line"
         x="-78.342102"
         y="-46.979328"
         style="font-style:normal;font-variant:normal;font-weight:normal;font-stretch:normal;font-size:3.52777767px;line-height:108.99999142%;font-family:monospace;-inkscape-font-specification:monospace;fill:#ff6600;stroke-width:0.26458332px"
         id="tspan3555">à gauche la partie accueillant le contenu et </tspan><tspan
         sodipodi:role="line"
         x="-78.342102"
         y="-43.134048"
         style="font-style:normal;font-variant:normal;font-weight:normal;font-stretch:normal;font-size:3.52777767px;line-height:108.99999142%;font-family:monospace;-inkscape-font-specification:monospace;fill:#ff6600;stroke-width:0.26458332px"
         id="tspan3557">à droite la partie navigation.</tspan></text>
    <path
       style="fill:#ff6600;fill-rule:evenodd;stroke:#ff6700;stroke-width:0.26437503;stroke-linecap:butt;stroke-linejoin:miter;stroke-miterlimit:4;stroke-dasharray:none;stroke-opacity:1"
       d="M 317.54484,7.0685798 233.17741,-38.278945"
       id="path6421-3-0-6-0"
       inkscape:connector-curvature="0"
       sodipodi:nodetypes="cc" />
    <path
       style="fill:#ff6600;fill-rule:evenodd;stroke:#ff6700;stroke-width:0.26437503;stroke-linecap:butt;stroke-linejoin:miter;stroke-miterlimit:4;stroke-dasharray:none;stroke-opacity:1"
       d="M 23.258275,7.0685798 123.29897,-38.278945"
       id="path6421-3-0-6-0-4"
       inkscape:connector-curvature="0"
       sodipodi:nodetypes="cc" />
    <text
       sodipodi:linespacing="108.99999%"
       id="text3567"
       y="-50.824604"
       x="128.25177"
       style="font-style:normal;font-weight:normal;font-size:10.58333302px;line-height:108.99999142%;font-family:sans-serif;letter-spacing:0px;word-spacing:0px;fill:#000000;fill-opacity:1;stroke:none;stroke-width:0.26458332px;stroke-linecap:butt;stroke-linejoin:miter;stroke-opacity:1"
       xml:space="preserve"><tspan
         id="tspan3573"
         style="font-style:normal;font-variant:normal;font-weight:normal;font-stretch:normal;font-size:3.52777767px;line-height:108.99999142%;font-family:monospace;-inkscape-font-specification:monospace;fill:#ff6600;stroke-width:0.26458332px"
         y="-50.824604"
         x="128.25177"
         sodipodi:role="line">Sur la home, à gauche les projets et à droite</tspan><tspan
         style="font-style:normal;font-variant:normal;font-weight:normal;font-stretch:normal;font-size:3.52777767px;line-height:108.99999142%;font-family:monospace;-inkscape-font-specification:monospace;fill:#ff6600;stroke-width:0.26458332px"
         y="-46.979328"
         x="128.25177"
         sodipodi:role="line"
         id="tspan3580">le système de filtres (dates, collaborateurs,</tspan><tspan
         style="font-style:normal;font-variant:normal;font-weight:normal;font-stretch:normal;font-size:3.52777767px;line-height:108.99999142%;font-family:monospace;-inkscape-font-specification:monospace;fill:#ff6600;stroke-width:0.26458332px"
         y="-43.134048"
         x="128.25177"
         sodipodi:role="line"
         id="tspan3582">technique, documentation...). Ici rétractés </tspan><tspan
         style="font-style:normal;font-variant:normal;font-weight:normal;font-stretch:normal;font-size:3.52777767px;line-height:108.99999142%;font-family:monospace;-inkscape-font-specification:monospace;fill:#ff6600;stroke-width:0.26458332px"
         y="-39.288773"
         x="128.25177"
         sodipodi:role="line"
         id="tspan3414">à son minimum pour laisser plus de place aux</tspan><tspan
         style="font-style:normal;font-variant:normal;font-weight:normal;font-stretch:normal;font-size:3.52777767px;line-height:108.99999142%;font-family:monospace;-inkscape-font-specification:monospace;fill:#ff6600;stroke-width:0.26458332px"
         y="-35.443493"
         x="128.25177"
         sodipodi:role="line"
         id="tspan3416">images de projets.</tspan></text>
    <rect
       y="21.454662"
       x="311.965"
       height="2.4169366"
       width="18.773056"
       id="rect3409"
       style="opacity:1;fill:#000000;fill-opacity:0.4;stroke:#000000;stroke-width:0.26458332;stroke-linecap:round;stroke-linejoin:round;stroke-miterlimit:4;stroke-dasharray:none;stroke-dashoffset:0;stroke-opacity:0.97101452;paint-order:stroke markers fill" />
    <rect
       y="11.912109"
       x="311.965"
       height="2.4169366"
       width="24.04237"
       id="rect3411"
       style="display:inline;opacity:1;fill:#000000;fill-opacity:0.4;stroke:#000000;stroke-width:0.26458332;stroke-linecap:round;stroke-linejoin:round;stroke-miterlimit:4;stroke-dasharray:none;stroke-dashoffset:0;stroke-opacity:0.97101452;paint-order:stroke markers fill" />
    <rect
       y="26.030247"
       x="311.965"
       height="2.4169366"
       width="13.064633"
       id="rect3413"
       style="color:#000000;clip-rule:nonzero;display:inline;overflow:visible;visibility:visible;opacity:1;isolation:auto;mix-blend-mode:normal;color-interpolation:sRGB;color-interpolation-filters:linearRGB;solid-color:#000000;solid-opacity:1;fill:#000000;fill-opacity:0.4;fill-rule:nonzero;stroke:#000000;stroke-width:0.26458332;stroke-linecap:round;stroke-linejoin:round;stroke-miterlimit:4;stroke-dasharray:none;stroke-dashoffset:0;stroke-opacity:0.97101452;paint-order:stroke markers fill;color-rendering:auto;image-rendering:auto;shape-rendering:auto;text-rendering:auto;enable-background:accumulate" />
    <rect
       y="30.598381"
       x="311.965"
       height="2.4169366"
       width="18.773056"
       id="rect3415"
       style="opacity:1;fill:#000000;fill-opacity:0.4;stroke:#000000;stroke-width:0.26458332;stroke-linecap:round;stroke-linejoin:round;stroke-miterlimit:4;stroke-dasharray:none;stroke-dashoffset:0;stroke-opacity:0.97101452;paint-order:stroke markers fill" />
    <rect
       y="16.357378"
       x="311.8327"
       height="2.4169366"
       width="13.393961"
       id="rect3417"
       style="color:#000000;clip-rule:nonzero;display:inline;overflow:visible;visibility:visible;opacity:1;isolation:auto;mix-blend-mode:normal;color-interpolation:sRGB;color-interpolation-filters:linearRGB;solid-color:#000000;solid-opacity:1;fill:#000000;fill-opacity:0.4;fill-rule:nonzero;stroke:none;stroke-width:0.26458332;stroke-linecap:round;stroke-linejoin:round;stroke-miterlimit:4;stroke-dasharray:none;stroke-dashoffset:0;stroke-opacity:1;paint-order:stroke markers fill;color-rendering:auto;image-rendering:auto;shape-rendering:auto;text-rendering:auto;enable-background:accumulate" />
    <rect
       style="color:#000000;clip-rule:nonzero;display:inline;overflow:visible;visibility:visible;opacity:1;isolation:auto;mix-blend-mode:normal;color-interpolation:sRGB;color-interpolation-filters:linearRGB;solid-color:#000000;solid-opacity:1;fill:none;fill-opacity:1;fill-rule:nonzero;stroke:#000000;stroke-width:0.93750006;stroke-linecap:butt;stroke-linejoin:miter;stroke-miterlimit:4;stroke-dasharray:none;stroke-dashoffset:0;stroke-opacity:1;color-rendering:auto;image-rendering:auto;shape-rendering:auto;text-rendering:auto;enable-background:accumulate"
       id="rect4860"
       width="338.66669"
       height="190.50002"
       x="1.4976783"
       y="0.38684291" />
  </g>
</svg>
