<?xml version="1.0" encoding="UTF-8"?>
<glyph name="Eng" format="1">
  <advance width="2048"/>
  <unicode hex="014A"/>
  <outline>
    <contour>
      <point x="68" y="1630" type="curve" smooth="yes"/>
      <point x="68" y="1674"/>
      <point x="95" y="1714"/>
      <point x="142" y="1714" type="curve" smooth="yes"/>
      <point x="605" y="1714" type="line" smooth="yes"/>
      <point x="637" y="1714"/>
      <point x="652" y="1704"/>
      <point x="664" y="1679" type="curve"/>
      <point x="1543" y="426" type="line"/>
      <point x="1543" y="1538" type="line"/>
      <point x="1363" y="1538" type="line" smooth="yes"/>
      <point x="1312" y="1538"/>
      <point x="1291" y="1580"/>
      <point x="1291" y="1630" type="curve" smooth="yes"/>
      <point x="1291" y="1674"/>
      <point x="1318" y="1714"/>
      <point x="1365" y="1714" type="curve" smooth="yes"/>
      <point x="1947" y="1714" type="line" smooth="yes"/>
      <point x="1994" y="1714"/>
      <point x="2020" y="1674"/>
      <point x="2020" y="1630" type="curve" smooth="yes"/>
      <point x="2020" y="1580"/>
      <point x="2000" y="1538"/>
      <point x="1949" y="1538" type="curve" smooth="yes"/>
      <point x="1750" y="1538" type="line"/>
      <point x="1750" y="-52" type="line" smooth="yes"/>
      <point x="1750" y="-425"/>
      <point x="1555" y="-587"/>
      <point x="1302" y="-587" type="curve" smooth="yes"/>
      <point x="1121" y="-587"/>
      <point x="967" y="-489"/>
      <point x="967" y="-364" type="curve" smooth="yes"/>
      <point x="967" y="-245" type="line" smooth="yes"/>
      <point x="967" y="-176"/>
      <point x="997" y="-141"/>
      <point x="1071" y="-141" type="curve" smooth="yes"/>
      <point x="1128" y="-141"/>
      <point x="1179" y="-170"/>
      <point x="1179" y="-225" type="curve" smooth="yes"/>
      <point x="1179" y="-338" type="line"/>
      <point x="1180" y="-381"/>
      <point x="1242" y="-419"/>
      <point x="1315" y="-419" type="curve" smooth="yes"/>
      <point x="1418" y="-419"/>
      <point x="1543" y="-336"/>
      <point x="1543" y="-75" type="curve" smooth="yes"/>
      <point x="1543" y="51" type="line"/>
      <point x="550" y="1456" type="line"/>
      <point x="550" y="176" type="line"/>
      <point x="726" y="176" type="line" smooth="yes"/>
      <point x="777" y="176"/>
      <point x="798" y="134"/>
      <point x="798" y="84" type="curve" smooth="yes"/>
      <point x="798" y="40"/>
      <point x="771" y="0"/>
      <point x="724" y="0" type="curve" smooth="yes"/>
      <point x="142" y="0" type="line" smooth="yes"/>
      <point x="95" y="0"/>
      <point x="68" y="40"/>
      <point x="68" y="84" type="curve" smooth="yes"/>
      <point x="68" y="134"/>
      <point x="89" y="176"/>
      <point x="140" y="176" type="curve" smooth="yes"/>
      <point x="339" y="176" type="line"/>
      <point x="339" y="1538" type="line"/>
      <point x="140" y="1538" type="line" smooth="yes"/>
      <point x="89" y="1538"/>
      <point x="68" y="1580"/>
    </contour>
  </outline>
</glyph>
